last-generated=2017-10-28
statistics-initialization=
{
  "numerical Jacobians": "0", 
  "nonlinear": "1, 1, 1, 1, 1, 13"
}
statistics-simulation=
{
  "numerical Jacobians": "0", 
  "nonlinear": "1, 1, 1, 1, 1, 1, 1, 11", 
  "number of continuous time states": "33", 
  "linear": "0, 0, 0, 0, 0, 0, 0, 0, 0, 0, 0"
}
conWin.T=[2.931499938964844e+02, 2.852898254394531e+02, 2.837159729003906e+02, 2.818474731445312e+02, 2.813751525878906e+02, 2.84065185546875e+02, 2.935333251953125e+02, 2.962756958007812e+02, 2.966367797851562e+02, 2.991850280761719e+02, 2.947901916503906e+02, 2.912813110351562e+02, 2.887958679199219e+02, 2.869087829589844e+02, 2.849292602539062e+02, 2.846190185546875e+02, 2.825960388183594e+02, 2.81214599609375e+02, 2.820101623535156e+02, 2.831534423828125e+02, 2.912507934570312e+02, 2.963994445800781e+02, 2.972632446289062e+02, 2.969965515136719e+02, 2.957709350585938e+02, 2.912726440429688e+02, 2.895422973632812e+02, 2.873092041015625e+02, 2.860320129394531e+02, 2.851898498535156e+02, 2.853744506835938e+02, 2.871030578613281e+02, 2.864512634277344e+02, 2.8622900390625e+02, 2.900973815917969e+02, 2.957131042480469e+02, 2.969339599609375e+02, 2.979534301757812e+02, 2.975740051269531e+02, 2.934258422851562e+02, 2.905963439941406e+02, 2.880804138183594e+02, 2.862895202636719e+02, 2.853878784179688e+02, 2.842419738769531e+02, 2.834022827148438e+02, 2.813632507324219e+02, 2.809479064941406e+02, 2.840227966308594e+02, 2.863424072265625e+02, 2.926628112792969e+02, 2.960546875e+02, 2.938998718261719e+02, 2.904812316894531e+02, 2.883690490722656e+02, 2.863577880859375e+02, 2.8524072265625e+02, 2.84061767578125e+02, 2.834323425292969e+02, 2.816337890625e+02, 2.804265441894531e+02, 2.799916076660156e+02, 2.822611694335938e+02, 2.859384460449219e+02, 2.942585754394531e+02, 2.966148071289062e+02, 2.967710876464844e+02, 2.940182800292969e+02, 2.901377563476562e+02, 2.874854125976562e+02, 2.856731262207031e+02, 2.845592651367188e+02, 2.835720520019531e+02, 2.827130737304688e+02, 2.821865539550781e+02, 2.814875793457031e+02, 2.815130615234375e+02, 2.865271606445312e+02, 2.889145812988281e+02, 2.934044494628906e+02, 2.9595361328125e+02, 2.946575317382812e+02, 2.897868347167969e+02, 2.871968383789062e+02, 2.849623107910156e+02, 2.849850158691406e+02, 2.845857543945312e+02, 2.840967407226562e+02, 2.824242248535156e+02, 2.824586791992188e+02, 2.828999633789062e+02, 2.838912353515625e+02, 2.854938659667969e+02, 2.849631958007812e+02, 2.893596801757812e+02, 2.914271240234375e+02, 2.879315795898438e+02, 2.858739624023438e+02, 2.836893310546875e+02, 2.8263818359375e+02, 2.815940551757812e+02]
weaBus.TDryBul=[2.803500061035156e+02, 2.803500061035156e+02, 2.796492004394531e+02, 2.775109558105469e+02, 2.788376770019531e+02, 2.791992797851562e+02, 2.820916748046875e+02, 2.830060119628906e+02, 2.839751892089844e+02, 2.872106018066406e+02, 2.845506896972656e+02, 2.840062255859375e+02, 2.836132202148438e+02, 2.826370239257812e+02, 2.803024597167969e+02, 2.816935119628906e+02, 2.78849365234375e+02, 2.779843139648438e+02, 2.806324768066406e+02, 2.80310791015625e+02, 2.843766784667969e+02, 2.870499877929688e+02, 2.870499877929688e+02, 2.859588623046875e+02, 2.854734191894531e+02, 2.8375e+02, 2.850522155761719e+02, 2.826613464355469e+02, 2.825427856445312e+02, 2.823992919921875e+02, 2.8385546875e+02, 2.870542907714844e+02, 2.855123291015625e+02, 2.841331481933594e+02, 2.849729614257812e+02, 2.853637084960938e+02, 2.884548950195312e+02, 2.89312744140625e+02, 2.872749633789062e+02, 2.864684143066406e+02, 2.85093994140625e+02, 2.832398986816406e+02, 2.820499877929688e+02, 2.819875183105469e+02, 2.809872131347656e+02, 2.801845397949219e+02, 2.776939392089844e+02, 2.780962829589844e+02, 2.808972473144531e+02, 2.820547180175781e+02, 2.831499938964844e+02, 2.838023681640625e+02, 2.833143920898438e+02, 2.831430969238281e+02, 2.826874389648438e+02, 2.82371826171875e+02, 2.820031738281249e+02, 2.813147583007812e+02, 2.8097509765625e+02, 2.779477844238281e+02, 2.774786682128906e+02, 2.780751953125e+02, 2.7993359375e+02, 2.802977600097656e+02, 2.817723999023438e+02, 2.827184143066406e+02, 2.842395324707031e+02, 2.835643615722656e+02, 2.82400390625e+02, 2.820659484863281e+02, 2.813123779296875e+02, 2.807817993164062e+02, 2.803592834472656e+02, 2.798500061035156e+02, 2.797239990234375e+02, 2.7925e+02, 2.782581481933594e+02, 2.789299621582031e+02, 2.798677673339844e+02, 2.801938781738281e+02, 2.812099914550781e+02, 2.814500122070312e+02, 2.814500122070312e+02, 2.813193054199219e+02, 2.79755126953125e+02, 2.827848205566406e+02, 2.823006896972656e+02, 2.817325744628906e+02, 2.797605590820312e+02, 2.809109802246094e+02, 2.81107421875e+02, 2.820301208496094e+02, 2.819288330078125e+02, 2.81187255859375e+02, 2.820239868164062e+02, 2.827900085449219e+02, 2.818864440917969e+02, 2.809717712402344e+02, 2.800125427246094e+02, 2.796690063476562e+02, 2.7875e+02]
time=[0e+00, 6.048e+05]
conWin.H=[9.999999747378752e-05, 9.999999747378752e-05, 9.999999747378752e-05, 9.999999747378752e-05, 9.999999747378752e-05, 1.059833374023438e+02, 3.497688598632812e+02, 4.198971862792969e+02, 3.984229736328125e+02, 2.693597106933594e+02, 9.999999747378752e-05, 9.999999747378752e-05, 9.999999747378752e-05, 9.999999747378752e-05, 9.999999747378752e-05, 9.999999747378752e-05, 9.999999747378752e-05, 9.999999747378752e-05, 9.999999747378752e-05, 3.148006820678711e+01, 2.810345458984375e+02, 4.319403991699219e+02, 4.232462768554688e+02, 3.01697509765625e+02, 1.381924247741699e+01, 9.999999747378752e-05, 9.999999747378752e-05, 9.999999747378752e-05, 9.999999747378752e-05, 9.999999747378752e-05, 9.999999747378752e-05, 9.999999747378752e-05, 9.999999747378752e-05, 1.578061819076538e+00, 1.94754364013673e+02, 3.594549255371094e+02, 4.153645935058594e+02, 3.194185180664062e+02, 1.066554412841797e+02, 9.999999747378752e-05, 9.999999747378752e-05, 9.999999747378752e-05, 9.999999747378752e-05, 9.999999747378752e-05, 9.999999747378752e-05, 9.999999747378752e-05, 9.999999747378752e-05, 9.999999747378752e-05, 1.023990936279297e+02, 2.254401702880859e+02, 3.889869689941406e+02, 3.896034240722656e+02, 1.701040191650391e+02, 9.999999747378752e-05, 9.999999747378752e-05, 9.999999747378752e-05, 9.999999747378752e-05, 9.999999747378752e-05, 9.999999747378752e-05, 9.999999747378752e-05, 9.999999747378752e-05, 9.999999747378752e-05, 6.633999633789062e+01, 2.526240234375e+02, 4.358975219726562e+02, 4.698300476074219e+02, 3.081083679199219e+02, 9.999999747378752e-05, 9.999999747378752e-05, 9.999999747378752e-05, 9.999999747378752e-05, 9.999999747378752e-05, 9.999999747378752e-05, 9.999999747378752e-05, 9.999999747378752e-05, 9.999999747378752e-05, 9.276398658752441e+00, 2.389193267822266e+02, 2.633645935058594e+02, 4.401556701660156e+02, 3.404425964355469e+02, 7.391233825683256e+01, 9.999999747378752e-05, 9.999999747378752e-05, 9.999999747378752e-05, 9.999999747378752e-05, 9.999999747378752e-05, 9.999999747378752e-05, 9.999999747378752e-05, 9.999999747378752e-05, 9.999999747378752e-05, 6.843462371826172e+01, 2.109132537841797e+02, 1.662153778076172e+02, 3.132966003417969e+02, 2.129326019287109e+02, 9.999999747378752e-05, 9.999999747378752e-05, 9.999999747378752e-05, 9.999999747378752e-05, 9.999999747378752e-05]
conWin.y=[0e+00, 0e+00, 0e+00, 0e+00, 0e+00, 0e+00, 0e+00, 5.628539919853214e-01, 7.433831095695496e-01, 1.935971826314926e-01, 0e+00, 0e+00, 0e+00, 0e+00, 0e+00, 0e+00, 0e+00, 0e+00, 0e+00, 0e+00, 0e+00, 6.24718189239502e-01, 1e+00, 4.773110449314117e-01, 0e+00, 0e+00, 0e+00, 0e+00, 0e+00, 0e+00, 0e+00, 0e+00, 0e+00, 0e+00, 0e+00, 2.815524339675903e-01, 8.919752836227417e-01, 6.941852569580078e-01, 0e+00, 0e+00, 0e+00, 0e+00, 0e+00, 0e+00, 0e+00, 0e+00, 0e+00, 0e+00, 0e+00, 0e+00, 0e+00, 4.523419737815857e-01, 0e+00, 0e+00, 0e+00, 0e+00, 0e+00, 0e+00, 0e+00, 0e+00, 0e+00, 0e+00, 0e+00, 0e+00, 0e+00, 7.324085235595703e-01, 4.709908664226532e-01, 0e+00, 0e+00, 0e+00, 0e+00, 0e+00, 0e+00, 0e+00, 0e+00, 0e+00, 0e+00, 0e+00, 0e+00, 0e+00, 3.634024858474731e-01, 0e+00, 0e+00, 0e+00, 0e+00, 0e+00, 0e+00, 0e+00, 0e+00, 0e+00, 0e+00, 0e+00, 0e+00, 0e+00, 0e+00, 0e+00, 0e+00, 0e+00, 0e+00, 0e+00, 0e+00]
